%YAML 1.1
%TAG !u! tag:unity3d.com,2011:
--- !u!1001 &100100000
Prefab:
  m_ObjectHideFlags: 1
  serializedVersion: 2
  m_Modification:
    m_TransformParent: {fileID: 0}
    m_Modifications: []
    m_RemovedComponents: []
  m_ParentPrefab: {fileID: 0}
  m_RootGameObject: {fileID: 1025502446008852}
  m_IsPrefabParent: 1
--- !u!1 &1025502446008852
GameObject:
  m_ObjectHideFlags: 0
  m_PrefabParentObject: {fileID: 0}
  m_PrefabInternal: {fileID: 100100000}
  serializedVersion: 5
  m_Component:
  - component: {fileID: 4078671778215444}
  - component: {fileID: 212529071629742598}
  - component: {fileID: 60813123632817404}
  - component: {fileID: 50701010572132624}
  - component: {fileID: 114096137547572194}
  m_Layer: 0
  m_Name: Pesawat Enemy 002
  m_TagString: Enemy
  m_Icon: {fileID: 0}
  m_NavMeshLayer: 0
  m_StaticEditorFlags: 0
  m_IsActive: 1
--- !u!1 &1076174723921042
GameObject:
  m_ObjectHideFlags: 1
  m_PrefabParentObject: {fileID: 0}
  m_PrefabInternal: {fileID: 100100000}
  serializedVersion: 5
  m_Component:
  - component: {fileID: 4538742350959442}
  m_Layer: 0
  m_Name: Launcher2
  m_TagString: Untagged
  m_Icon: {fileID: 0}
  m_NavMeshLayer: 0
  m_StaticEditorFlags: 0
  m_IsActive: 1
--- !u!1 &1110879131705874
GameObject:
  m_ObjectHideFlags: 1
  m_PrefabParentObject: {fileID: 0}
  m_PrefabInternal: {fileID: 100100000}
  serializedVersion: 5
  m_Component:
  - component: {fileID: 4293222620156090}
  m_Layer: 0
  m_Name: Launcher1
  m_TagString: Untagged
  m_Icon: {fileID: 0}
  m_NavMeshLayer: 0
  m_StaticEditorFlags: 0
  m_IsActive: 1
--- !u!1 &1164800793341390
GameObject:
  m_ObjectHideFlags: 0
  m_PrefabParentObject: {fileID: 0}
  m_PrefabInternal: {fileID: 100100000}
  serializedVersion: 5
  m_Component:
  - component: {fileID: 4788078918490116}
  m_Layer: 0
  m_Name: Launcher
  m_TagString: Untagged
  m_Icon: {fileID: 0}
  m_NavMeshLayer: 0
  m_StaticEditorFlags: 0
  m_IsActive: 1
--- !u!4 &4078671778215444
Transform:
  m_ObjectHideFlags: 1
  m_PrefabParentObject: {fileID: 0}
  m_PrefabInternal: {fileID: 100100000}
  m_GameObject: {fileID: 1025502446008852}
  m_LocalRotation: {x: 0, y: 0, z: 0, w: 1}
  m_LocalPosition: {x: -2.52, y: 3.84, z: 0}
  m_LocalScale: {x: 0.2380052, y: 0.2380052, z: 0.2380052}
  m_Children:
  - {fileID: 4788078918490116}
  m_Father: {fileID: 0}
  m_RootOrder: 0
  m_LocalEulerAnglesHint: {x: 0, y: 0, z: 0}
--- !u!4 &4293222620156090
Transform:
  m_ObjectHideFlags: 1
  m_PrefabParentObject: {fileID: 0}
  m_PrefabInternal: {fileID: 100100000}
  m_GameObject: {fileID: 1110879131705874}
  m_LocalRotation: {x: 0, y: 0, z: 0, w: 1}
  m_LocalPosition: {x: 1.3, y: 1.2, z: 0}
  m_LocalScale: {x: 1, y: 1, z: 1}
  m_Children: []
  m_Father: {fileID: 4788078918490116}
  m_RootOrder: 0
  m_LocalEulerAnglesHint: {x: 0, y: 0, z: 0}
--- !u!4 &4538742350959442
Transform:
  m_ObjectHideFlags: 1
  m_PrefabParentObject: {fileID: 0}
  m_PrefabInternal: {fileID: 100100000}
  m_GameObject: {fileID: 1076174723921042}
  m_LocalRotation: {x: 0, y: 0, z: 0, w: 1}
  m_LocalPosition: {x: -1.3, y: 1.2, z: 0}
  m_LocalScale: {x: 1, y: 1, z: 1}
  m_Children: []
  m_Father: {fileID: 4788078918490116}
  m_RootOrder: 1
  m_LocalEulerAnglesHint: {x: 0, y: 0, z: 0}
--- !u!4 &4788078918490116
Transform:
  m_ObjectHideFlags: 1
  m_PrefabParentObject: {fileID: 0}
  m_PrefabInternal: {fileID: 100100000}
  m_GameObject: {fileID: 1164800793341390}
  m_LocalRotation: {x: 0, y: 0, z: 0, w: 1}
  m_LocalPosition: {x: 0, y: 0, z: 0}
  m_LocalScale: {x: 1, y: 1, z: 1}
  m_Children:
  - {fileID: 4293222620156090}
  - {fileID: 4538742350959442}
  m_Father: {fileID: 4078671778215444}
  m_RootOrder: 0
  m_LocalEulerAnglesHint: {x: 0, y: 0, z: 0}
--- !u!50 &50701010572132624
Rigidbody2D:
  serializedVersion: 4
  m_ObjectHideFlags: 1
  m_PrefabParentObject: {fileID: 0}
  m_PrefabInternal: {fileID: 100100000}
  m_GameObject: {fileID: 1025502446008852}
  m_BodyType: 1
  m_Simulated: 1
  m_UseFullKinematicContacts: 0
  m_UseAutoMass: 0
  m_Mass: 1
  m_LinearDrag: 0
  m_AngularDrag: 0.05
  m_GravityScale: 1
  m_Material: {fileID: 0}
  m_Interpolate: 0
  m_SleepingMode: 1
  m_CollisionDetection: 0
  m_Constraints: 0
--- !u!60 &60813123632817404
PolygonCollider2D:
  m_ObjectHideFlags: 1
  m_PrefabParentObject: {fileID: 0}
  m_PrefabInternal: {fileID: 100100000}
  m_GameObject: {fileID: 1025502446008852}
  m_Enabled: 1
  m_Density: 1
  m_Material: {fileID: 0}
  m_IsTrigger: 1
  m_UsedByEffector: 0
  m_UsedByComposite: 0
  m_Offset: {x: 0, y: 0}
  m_SpriteTilingProperty:
    border: {x: 0, y: 0, z: 0, w: 0}
    pivot: {x: 0.5, y: 0.5}
    oldSize: {x: 5.07, y: 4.03}
    newSize: {x: 5.07, y: 4.03}
    adaptiveTilingThreshold: 0.5
    drawMode: 0
    adaptiveTiling: 0
  m_AutoTiling: 0
  m_Points:
    m_Paths:
    - - {x: 0.555, y: -1.7049999}
      - {x: 0.715, y: -1.7049999}
      - {x: 0.875, y: -1.665}
      - {x: 0.92499995, y: -1.625}
      - {x: 0.965, y: -1.535}
      - {x: 0.955, y: -1.3249999}
      - {x: 0.91499996, y: -1.295}
      - {x: 0.695, y: -1.245}
      - {x: 0.445, y: -1.225}
      - {x: 0.205, y: -1.175}
      - {x: 0.315, y: -0.515}
      - {x: 0.36499998, y: 0.255}
      - {x: 0.445, y: 0.375}
      - {x: 0.565, y: 0.375}
      - {x: 0.705, y: 0.385}
      - {x: 1.235, y: 0.415}
      - {x: 2.2749999, y: 0.505}
      - {x: 2.365, y: 0.545}
      - {x: 2.495, y: 0.675}
      - {x: 2.5349998, y: 0.775}
      - {x: 2.5349998, y: 1.015}
      - {x: 2.485, y: 1.0849999}
      - {x: 2.405, y: 1.115}
      - {x: 1.405, y: 1.175}
      - {x: 1.405, y: 1.365}
      - {x: 1.365, y: 1.415}
      - {x: 1.265, y: 1.415}
      - {x: 1.235, y: 1.375}
      - {x: 1.185, y: 1.2049999}
      - {x: 0.515, y: 1.245}
      - {x: 0.355, y: 1.285}
      - {x: 0.355, y: 1.775}
      - {x: 0.295, y: 1.8349999}
      - {x: 0.16499999, y: 1.895}
      - {x: 0.21499999, y: 1.9549999}
      - {x: 0.645, y: 1.9549999}
      - {x: 0.66499996, y: 1.9749999}
      - {x: 0.66499996, y: 2.0049999}
      - {x: 0.655, y: 2.0149999}
      - {x: -0.695, y: 2.0149999}
      - {x: -0.675, y: 1.9449999}
      - {x: -0.235, y: 1.9549999}
      - {x: -0.185, y: 1.925}
      - {x: -0.325, y: 1.8249999}
      - {x: -0.375, y: 1.775}
      - {x: -0.375, y: 1.295}
      - {x: -0.415, y: 1.265}
      - {x: -1.275, y: 1.185}
      - {x: -1.275, y: 1.345}
      - {x: -1.3149999, y: 1.395}
      - {x: -1.415, y: 1.395}
      - {x: -1.4449999, y: 1.355}
      - {x: -1.645, y: 1.165}
      - {x: -1.925, y: 1.145}
      - {x: -2.175, y: 1.125}
      - {x: -2.445, y: 1.115}
      - {x: -2.5349998, y: 1.025}
      - {x: -2.5349998, y: 0.775}
      - {x: -2.485, y: 0.655}
      - {x: -2.395, y: 0.555}
      - {x: -2.2749999, y: 0.505}
      - {x: -0.435, y: 0.36499998}
      - {x: -0.36499998, y: 0.315}
      - {x: -0.36499998, y: 0.175}
      - {x: -0.355, y: 0.015}
      - {x: -0.33499998, y: -0.33499998}
      - {x: -0.305, y: -0.585}
      - {x: -0.225, y: -1.2049999}
      - {x: -0.79499996, y: -1.245}
      - {x: -0.965, y: -1.3149999}
      - {x: -0.995, y: -1.425}
      - {x: -0.965, y: -1.625}
      - {x: -0.895, y: -1.675}
      - {x: -0.705, y: -1.7049999}
      - {x: -0.13499999, y: -1.8249999}
      - {x: -0.074999996, y: -1.995}
      - {x: -0.055, y: -2.0149999}
      - {x: 0.035, y: -2.0149999}
      - {x: 0.055, y: -1.995}
      - {x: 0.114999995, y: -1.8349999}
      - {x: 0.125, y: -1.7149999}
--- !u!114 &114096137547572194
MonoBehaviour:
  m_ObjectHideFlags: 1
  m_PrefabParentObject: {fileID: 0}
  m_PrefabInternal: {fileID: 100100000}
  m_GameObject: {fileID: 1025502446008852}
  m_Enabled: 1
  m_EditorHideFlags: 0
  m_Script: {fileID: 11500000, guid: 0de32e2ca1b3c054090ce501c42dbb96, type: 3}
  m_Name: 
  m_EditorClassIdentifier: 
  kecepatan: 2
  pelurunya:
  - {fileID: 4538742350959442}
  - {fileID: 4293222620156090}
  pel_musuh: {fileID: 114489539861432602, guid: 7115efb9468edf944a455890113d2088,
    type: 2}
--- !u!212 &212529071629742598
SpriteRenderer:
  m_ObjectHideFlags: 1
  m_PrefabParentObject: {fileID: 0}
  m_PrefabInternal: {fileID: 100100000}
  m_GameObject: {fileID: 1025502446008852}
  m_Enabled: 1
  m_CastShadows: 0
  m_ReceiveShadows: 0
  m_DynamicOccludee: 1
  m_MotionVectors: 1
  m_LightProbeUsage: 1
  m_ReflectionProbeUsage: 1
  m_Materials:
  - {fileID: 10754, guid: 0000000000000000f000000000000000, type: 0}
  m_StaticBatchInfo:
    firstSubMesh: 0
    subMeshCount: 0
  m_StaticBatchRoot: {fileID: 0}
  m_ProbeAnchor: {fileID: 0}
  m_LightProbeVolumeOverride: {fileID: 0}
  m_ScaleInLightmap: 1
  m_PreserveUVs: 0
  m_IgnoreNormalsForChartDetection: 0
  m_ImportantGI: 0
  m_StitchLightmapSeams: 0
  m_SelectedEditorRenderState: 0
  m_MinimumChartSize: 4
  m_AutoUVMaxDistance: 0.5
  m_AutoUVMaxAngle: 89
  m_LightmapParameters: {fileID: 0}
  m_SortingLayerID: 0
  m_SortingLayer: 0
  m_SortingOrder: 2
  m_Sprite: {fileID: 21300000, guid: 61cc09228e92af441bd077c4d2cfe634, type: 3}
  m_Color: {r: 1, g: 1, b: 1, a: 1}
  m_FlipX: 0
  m_FlipY: 0
  m_DrawMode: 0
  m_Size: {x: 5.07, y: 4.03}
  m_AdaptiveModeThreshold: 0.5
  m_SpriteTileMode: 0
  m_WasSpriteAssigned: 1
  m_MaskInteraction: 0
